{
    "key": "group_5b7f23c0b28db",
    "title": "Images Category",
    "fields": [
        {
            "key": "field_5b7f23c969006",
            "label": "category",
            "name": "category",
            "type": "radio",
            "instructions": "",
            "required": 0,
            "conditional_logic": 0,
            "wrapper": {
                "width": "",
                "class": "",
                "id": ""
            },
            "choices": {
                "FlexStor": "FlexStor",
                "FlexStand": "FlexStand",
                "Accessories": "Accessories"
            },
            "allow_null": 1,
            "other_choice": 1,
            "save_other_choice": 1,
            "default_value": "",
            "layout": "vertical",
            "return_format": "label"
        }
    ],
    "location": [
        [
            {
                "param": "attachment",
                "operator": "==",
                "value": "all"
            }
        ]
    ],
    "menu_order": 0,
    "position": "normal",
    "style": "default",
    "label_placement": "top",
    "instruction_placement": "label",
    "hide_on_screen": "",
    "active": 1,
    "description": "",
    "modified": 1535059033
}